module gitlab.com/HarukaNetwork/OSS/HarukaX

go 1.12

require (
	cloud.google.com/go v0.37.4 // indirect
	github.com/PaulSonOfLars/gotg_md2html v0.0.0-20190928101618-7d177d22631c
	github.com/PaulSonOfLars/gotgbot v0.0.0-20200103184348-7ae29654e65a
	github.com/allegro/bigcache v1.2.1
	github.com/go-redis/redis v6.15.6+incompatible
	github.com/google/uuid v1.1.1
	github.com/jinzhu/gorm v1.9.12
	github.com/joho/godotenv v1.3.0
	github.com/konsorten/go-windows-terminal-sequences v1.0.2 // indirect
	github.com/lib/pq v1.3.0
	github.com/sirupsen/logrus v1.4.2
	github.com/tcnksm/go-httpstat v0.2.0
	github.com/wI2L/jettison v0.4.1
	golang.org/x/sys v0.0.0-20200107162124-548cf772de50 // indirect
	gopkg.in/check.v1 v1.0.0-20180628173108-788fd7840127 // indirect
)
